1,Root,/,
2,Yataq,/yataq-mebeli,1
3,Qonaq,/qonaq-mebeli,1
4,Çarpayı,/charpayi,2
5,Qonaq dəsti,/qonaq-desti,3
6,Masa,/masa-qonaq,3
3,Yataq Dəsti,/yataq-desti,2
7,Yumşaq,/yumsaq-mebeller,1
9,Divan 3 yerli,/divan-3-yerli,7
8,Divan Dəsti,/divan-desti,7
